HarvardX PH125.9x Capstone - Movielens
…
edx %>%
  group_by(diff_year) %>%
  summarise(count = n()) %>%
  arrange(desc(count)) 

## # A tibble: 94 x 2
##    diff_year   count
##        <dbl>   <int>
##  1         1 1068070
##  2         2  853680
##  3         3  647650
##  4         4  473660
##  5         5  436378
##  6         6  410159
##  7         0  380915
##  8         7  354368
##  9         8  320713
## 10         9  292203
## # ... with 84 more rows
…
